name="Anbennar-Vicky3"
path="mod/Anbennar-Vicky3"
replace_path="common/map/textures"
replace_path="common/character_templates"
replace_path="common/dynamic_country_map_colors"
replace_path="common/dynamic_country_names"
replace_path="common/strategic_regions"
replace_path="common/history"
replace_path="common/history/ai"
replace_path="common/history/characters"
replace_path="common/history/countries"
replace_path="common/history/buildings"
replace_path="common/history/diplomacy"
replace_path="common/history/diplomatic_plays"
replace_path="common/history/global"
replace_path="common/history/population"
replace_path="common/history/pops"
replace_path="common/history/production_methods"
replace_path="common/history/states"
replace_path="common/history/trade_routes"
replace_path="map_data/state_regions"