﻿object={
	name="bush_dry_02_generator_2_0"
	clamp_to_water_level=no
	render_under_water=no
	generated_content=yes
	layer="semidynamic_high"
	pdxmesh="tree_bush_05_mesh"
	count=5
	transform="4668.771484 0.000000 2409.427979 0.000000 0.995100 0.000000 0.098871 0.249039 0.249039 0.249039
4693.235840 0.000000 2392.204834 0.000000 0.941375 0.000000 0.337361 0.247025 0.247025 0.247025
4686.389160 0.000000 2405.728516 0.000000 0.447986 0.000000 0.894040 0.240126 0.240126 0.240126
4702.816895 0.000000 2386.781494 0.000000 0.578278 0.000000 0.815840 0.240918 0.240918 0.240918
4696.230957 0.000000 2387.352539 0.000000 0.676306 0.000000 0.736621 0.240956 0.240956 0.240956
"}
object={
	name="bush_dry_02_generator_2_1"
	clamp_to_water_level=no
	render_under_water=no
	generated_content=yes
	layer="semidynamic_high"
	pdxmesh="tree_bush_06_mesh"
	count=5
	transform="4663.060547 0.000000 2413.943359 0.000000 0.916543 0.000000 -0.399937 0.253531 0.253531 0.253531
4664.471680 0.000000 2412.799805 0.000000 0.641124 0.000000 -0.767438 0.258791 0.258791 0.258791
4684.080078 0.000000 2403.632568 0.000000 0.797774 0.000000 -0.602957 0.256362 0.256362 0.256362
4687.736328 0.000000 2403.104980 0.000000 0.932562 0.000000 -0.361010 0.253608 0.253608 0.253608
4697.632324 0.000000 2387.561279 0.000000 0.269901 0.000000 -0.962888 0.264172 0.264172 0.264172
"}
