﻿object={
	name="vfx_rain_emitter"
	clamp_to_water_level=no
	render_under_water=no
	generated_content=no
	layer="static"
	entity="vfx_rain_emitter"
	count=0
}
object={
	name="vfx_sandstorm_emitter"
	clamp_to_water_level=no
	render_under_water=no
	generated_content=no
	layer="static"
	entity="vfx_sandstorm_emitter"
	count=18
	transform="4153.666992 0.000000 2019.221558 0.000000 0.000000 0.000000 1.000000 1.000000 1.000000 1.000000
4060.113037 0.000000 2050.896729 0.000000 0.000000 0.000000 1.000000 1.000000 1.000000 1.000000
3909.774414 0.000000 2034.931152 0.000000 0.000000 0.000000 1.000000 1.000000 1.000000 1.000000
4008.354004 0.000000 2158.241943 0.000000 0.000000 0.000000 1.000000 1.000000 1.000000 1.000000
4238.375488 0.000000 2167.740967 0.000000 0.000000 0.000000 1.000000 1.000000 1.000000 1.000000
4397.746582 0.000000 2154.683350 0.000000 0.000000 0.000000 1.000000 1.000000 1.000000 1.000000
4580.998047 0.000000 2167.432373 0.000000 0.000000 0.000000 1.000000 1.000000 1.000000 1.000000
4537.738770 0.000000 2078.383545 0.000000 0.000000 0.000000 1.000000 1.000000 1.000000 1.000000
4752.092773 0.000000 1965.348389 0.000000 0.000000 0.000000 1.000000 1.000000 1.000000 1.000000
4748.997070 0.000000 1810.860718 0.000000 0.000000 0.000000 1.000000 1.000000 1.000000 1.000000
4533.464355 0.000000 1888.377808 0.000000 0.000000 0.000000 1.000000 1.000000 1.000000 1.000000
4446.971680 0.000000 1962.687134 0.000000 0.000000 0.000000 1.000000 1.000000 1.000000 1.000000
4309.381348 0.000000 1840.414551 0.000000 0.000000 0.000000 1.000000 1.000000 1.000000 1.000000
4193.594727 0.000000 1965.173828 0.000000 0.000000 0.000000 1.000000 1.000000 1.000000 1.000000
3979.851807 0.000000 1921.535034 0.000000 0.000000 0.000000 1.000000 1.000000 1.000000 1.000000
5218.185547 0.000000 1968.952637 0.000000 0.000000 0.000000 1.000000 1.000000 1.000000 1.000000
5656.877441 0.000000 2368.497559 0.000000 0.000000 0.000000 1.000000 1.000000 1.000000 1.000000
5552.526367 0.000000 2471.124023 0.000000 0.000000 0.000000 1.000000 1.000000 1.000000 1.000000
"}
object={
	name="vfx_snowstorm_emitter"
	clamp_to_water_level=no
	render_under_water=no
	generated_content=no
	layer="static"
	entity="vfx_snowstorm_emitter"
	count=3
	transform="3081.568604 0.000000 3290.166260 0.000000 0.000000 0.000000 1.000000 1.000000 1.000000 1.000000
3028.979004 0.000000 3540.883789 0.000000 0.000000 0.000000 1.000000 1.000000 1.000000 1.000000
3261.100098 0.000000 3534.107422 0.000000 0.000000 0.000000 1.000000 1.000000 1.000000 1.000000
"}
object={
	name="wonder_easter_island_heads_01"
	clamp_to_water_level=no
	render_under_water=no
	generated_content=no
	layer="static"
	pdxmesh="wonder_easter_island_heads_01_mesh"
	count=0
}
object={
	name="wonder_eye_of_sahara_01"
	clamp_to_water_level=no
	render_under_water=no
	generated_content=no
	layer="static"
	pdxmesh="wonder_eye_of_sahara_01_mesh"
	count=1
	transform="3838.021484 0.000000 1999.368774 0.000000 0.000000 0.000000 1.000000 1.000000 1.000000 1.000000
"}
